<?xml version="1.0" encoding="UTF-8"?>
<svg width="19px" height="19px" viewBox="0 0 19 19" version="1.1" xmlns="http://www.w3.org/2000/svg" xmlns:xlink="http://www.w3.org/1999/xlink">
    <!-- Generator: sketchtool 59.1 (101010) - https://sketch.com -->
    <title>48305E33-60C5-4451-99F3-BCECFFCB2F72</title>
    <desc>Created with sketchtool.</desc>
    <g id="Welcome" stroke="none" stroke-width="1" fill="none" fill-rule="evenodd">
        <g id="Desktop-HD---Redakce" transform="translate(-293.000000, -341.000000)" fill="#000000" fill-rule="nonzero">
            <g id="Kontakt-1" transform="translate(292.000000, 245.000000)">
                <g id="Phone_icon" transform="translate(1.000000, 96.000000)">
                    <g id="phone">
                        <path d="M17.50001,19 C18.3271,19 19.00001,18.3271 19.00001,17.5 L19.00001,14 C19.00001,13.1729 18.3271,12.5 17.50001,12.5 C16.3301,12.5 15.1807,12.3164 14.0801,11.9531 C13.5488,11.7822 12.9668,11.9219 12.5566,12.3164 L11.1172,13.7559 C8.6357,12.4121 6.5654,10.3428 5.23191,7.8726 L6.66062,6.43649 C7.07282,6.0542 7.22071,5.47311 7.0449,4.9136 C6.6836,3.81878 6.50001,2.67041 6.50001,1.5 C6.50001,0.67291 5.82709,0 5.00001,0 L1.50001,0 C0.67292,0 1e-05,0.67291 1e-05,1.5 C1e-05,11.1494 7.85059,19 17.50001,19 Z M1.50001,1 L5.00001,1 C5.27592,1 5.50001,1.22409 5.50001,1.5 C5.50001,2.77731 5.7002,4.03131 6.0933,5.22021 C6.1377,5.36178 6.13129,5.5635 5.96631,5.71728 L4.0098,7.6826 C5.64652,10.9111 8.0654,13.3291 11.3076,14.9795 L13.2568,13.0303 C13.3975,12.8945 13.5938,12.8477 13.7725,12.9043 C14.9688,13.2998 16.2227,13.5 17.50001,13.5 C17.7754,13.5 18.00001,13.7246 18.00001,14 L18.00001,17.5 C18.00001,17.7754 17.7754,18 17.50001,18 C8.4019,18 1.00001,10.5977 1.00001,1.5 C1.00001,1.22409 1.2241,1 1.50001,1 Z" id="Shape"></path>
                    </g>
                </g>
            </g>
        </g>
    </g>
</svg>