<?xml version="1.0" encoding="UTF-8"?>
<svg width="50px" height="50px" viewBox="0 0 50 50" version="1.1" xmlns="http://www.w3.org/2000/svg" xmlns:xlink="http://www.w3.org/1999/xlink">
    <!-- Generator: Sketch 59.1 (86144) - https://sketch.com -->
    <title>Right</title>
    <desc>Created with Sketch.</desc>
    <g id="Welcome" stroke="none" stroke-width="1" fill="none" fill-rule="evenodd">
        <g id="Desktop-HD---Detail_podpora" transform="translate(-1089.000000, -1937.000000)">
            <g id="Right" transform="translate(1114.000000, 1962.000000) rotate(-90.000000) translate(-1114.000000, -1962.000000) translate(1089.000000, 1937.000000)">
                <rect id="Right_background" fill-opacity="0.5" fill="#000000" x="0" y="0" width="50" height="50"></rect>
                <g id="Right_photos" stroke-width="1" transform="translate(16.250000, 6.250000)" fill="#FFFFFF">
                    <g id="chevron-right" fill-rule="nonzero">
                        <polygon id="Path" points="2.36111853 37.5 21.25 18.7499337 2.36111853 0 0 2.34375 16.5278297 18.7499337 3.33911065e-05 35.1559517"></polygon>
                    </g>
                </g>
            </g>
        </g>
    </g>
</svg>